{
  "version": "https://jsonfeed.org/version/1.1",
  "title": "Guillaume",
  "description": "Recent content in Apprentissage on Guillaume",
  "home_page_url": "https://www.gaullier.org/fr/tags/apprentissage/",
  "feed_url": "https://www.gaullier.org/fr/tags/apprentissage/index.json",
  "authors": [
    {
      "name": "Guillaume Gaullier",
      "url": "https://www.gaullier.org/"
    }
  ],
  "user_comment": "This is a machine-readable full archive of my personal website.",
  "icon": "https://www.gaullier.org/images/logo.png",
  "favicon": "https://www.gaullier.org/favicon.png",
  "language": "fr",
  "items": [
    
    {
      "id": "https://www.gaullier.org/fr/blog/2015/12/03/retour-d-experience-sur-les-moocs/",
      "url": "https://www.gaullier.org/fr/blog/2015/12/03/retour-d-experience-sur-les-moocs/",
      "title": "Retour d'expérience sur les MOOCs",
      "authors": [
        {
          "name": "Guillaume Gaullier"
        }
      ],
      "date_published": "2015-12-03T00:00:00Z",
      "date_modified": "2015-12-03T00:00:00Z",
      "tags": ["learning","internet"],
      "content_html": "\u003cp\u003eVoilà un bref retour d\u0026rsquo;expérience sur quelques MOOCs (\u003cem\u003emassive open online\ncourses\u003c/em\u003e) que j\u0026rsquo;ai suivis ces derniers mois. Contrairement à divers types de\ncontenus pédagogiques en ligne (tutoriels, documentations, etc.) qui sont pour\nla plupart uniquement textuels, les MOOCs incorporent souvent des vidéos, et\nmettent surtout l\u0026rsquo;accent sur les interactions entre élèves.\u003c/p\u003e\n\u003ch2 id=\"sur-le-site-france-université-numérique\"\u003eSur le site France Université Numérique\u003c/h2\u003e\n\u003cp\u003eLe tout premier MOOC que j\u0026rsquo;ai suivi s\u0026rsquo;est tenu en juin dernier, et s\u0026rsquo;intitulait\n\u0026ldquo;Bioinformatique : algorithmes et génomes\u0026rdquo;. Il était dispensé par une équipe de\nl\u0026rsquo;INRIA (Institut National de la Recherche en Informatique et Automatique) sur\nle site \u003ca href=\"https://www.france-universite-numerique-mooc.fr\"\u003eFrance Université Numérique (FUN)\u003c/a\u003e. Alors que j\u0026rsquo;étais pourtant en\npleine rédaction de ma thèse à ce moment-là, j\u0026rsquo;ai décidé de suivre ce MOOC par\nintérêt mais sans vraiment penser le suivre assidûment. Il s\u0026rsquo;est en fait révélé\ntrès facile à suivre car les notions de biologie abordées (principalement\nl\u0026rsquo;expression des gènes) étaient pour moi bien connues. Du côté de\nl\u0026rsquo;algorithmique, ce cours a pris le parti d\u0026rsquo;expliquer quelques méthodes de\ncomparaison de séquences et de recherche dans des séquences, mais avec une\napproche uniquement théorique à base de pseudo-code. Si je suis content d\u0026rsquo;avoir\nmaintenant une idée d\u0026rsquo;ensemble de ces méthodes, il faut bien reconnaître que ce\ncours n\u0026rsquo;a eu aucune retombée pratique pour mon travail de recherche. Je le\nrecommande néanmoins à tout biologiste qui aimerait avoir une introduction douce\nà quelques notions théoriques de bioinformatique, pour mieux comprendre les\noutils d\u0026rsquo;analyse de séquences les plus souvent utilisés.\u003c/p\u003e\n\u003cp\u003eJ\u0026rsquo;ai ensuite suivi, sur ce même site, un cours intitulé \u0026ldquo;Introduction à la\nstatistique avec R\u0026rdquo;, dispensé par des professeurs des universités Paris-Sud et\nParis Diderot. Celui-ci a été très bénéfique car il m\u0026rsquo;a permis de réactiver mes\nfaibles connaissances en statistique. Je dois avouer que le seul cours dédié\nà cette discipline que j\u0026rsquo;ai suivi en licence ne m\u0026rsquo;avait pas séduit à l\u0026rsquo;époque\u0026hellip;\net comme pour beaucoup de choses, on s\u0026rsquo;aperçoit par la suite que c\u0026rsquo;était en fait\nimportant. Ce cours donne une bonne approche de notions statistiques\nfondamentales (toujours utiles pour un chercheur, même si on ne s\u0026rsquo;en sert pas\nsoi-même, ne serait-ce que pour bien comprendre ce qu\u0026rsquo;on peut lire dans les\narticles), et de l\u0026rsquo;utilisation de R en tant qu\u0026rsquo;outil pour cette discipline.\nEn revanche ce cours n\u0026rsquo;a que très peu abordé R en tant que langage\nde programmation. Le cours est proposé régulièrement, et je le conseille à toute\npersonne qui aimerait aborder la statistique en douceur.\u003c/p\u003e\n\u003cp\u003eEn parallèle du cours sur la statistique, j\u0026rsquo;ai tenté de suivre un cours de\nprogrammation avec Python (dispensé par une équipe de l\u0026rsquo;INRIA) mais je m\u0026rsquo;en suis\nrapidement désintéressé faute d\u0026rsquo;applications concrètes dans mon domaine\nscientifique. Avant ce cours j\u0026rsquo;avais essayé d\u0026rsquo;apprendre Python de façon\nautodidacte en tentant de résoudre les défis de bioinformatique proposés par le\nsite \u003ca href=\"http://rosalind.info\"\u003eRosalind\u003c/a\u003e, mais j\u0026rsquo;ai rapidement manqué de temps pour cette\nactivité à cause de la rédaction de ma thèse.\u003c/p\u003e\n\u003ch2 id=\"sur-le-site-coursera\"\u003eSur le site Coursera\u003c/h2\u003e\n\u003cp\u003e\u003ca href=\"https://www.coursera.org/\"\u003eCoursera\u003c/a\u003e est un autre site majeur dans l\u0026rsquo;offre de MOOCs, cette fois\nanglophone (mais les vidéos sont souvent sous-titrées dans de nombreuses langues\ndont le français). Sur ce site, la série de cours intitulée \u003ca href=\"https://www.coursera.org/specializations/jhudatascience\"\u003e\u0026quot;\u003cem\u003eData Science\nSpecialization\u003c/em\u003e\u0026quot;\u003c/a\u003e m\u0026rsquo;a rapidement intéressé. Pour le moment je n\u0026rsquo;ai suivi\nque les deux premiers cours : \u0026ldquo;\u003cem\u003eThe Data Scientist\u0026rsquo;s Toolbox\u003c/em\u003e\u0026rdquo; et \u0026ldquo;\u003cem\u003eR\nProgramming\u003c/em\u003e\u0026rdquo;. Le premier était fait pour guider les gens dans l\u0026rsquo;installation et\nl\u0026rsquo;utilisation basique des outils, notamment git et GitHub. Pour quelqu\u0026rsquo;un qui\nconnait déjà certains de ces outils, répondre à l\u0026rsquo;ensemble des questions ne\nnécessite pas forcément de regarder les vidéos, et peut prendre seulement une\ndemi-journée (le cours étant prévu pour durer un mois\u0026hellip;). J\u0026rsquo;ai suivi ce cours\nen parallèle du deuxième, qui était en revanche beaucoup plus intensif, avec\nchaque semaine des exercices de programmation à faire (tous évalués\nautomatiquement, sauf un évalué par les autres élèves). Je me suis bien amusé\nà suivre ce cours, et je suis convaincu que ces quelques compétences pourront me\nservir un jour ou l\u0026rsquo;autre. J\u0026rsquo;ai aussi découvert avec ce cours que la\nprogrammation pouvait m\u0026rsquo;amuser, contrairement à l\u0026rsquo;expérience frustrante qu\u0026rsquo;ont\nété les quelques dizaines d\u0026rsquo;heures que j\u0026rsquo;ai passées à jouer avec Python. Il faut\ndire que R est spécialement conçu pour l\u0026rsquo;analyse de données, et en tant que\nchercheur c\u0026rsquo;est ce qui m\u0026rsquo;intéresse le plus.\u003c/p\u003e\n\u003cp\u003eJ\u0026rsquo;envisage de suivre quelques-uns des autres cours de cette spécialisation, mais\npeut-être pas tous (les trois derniers m\u0026rsquo;intéressent moins). Cela dépendra de\nmon temps libre, car dès que j\u0026rsquo;aurai trouvé un nouveau labo où travailler je\nn\u0026rsquo;aurai certainement plus le temps de suivre des cours aussi intensifs.\u003c/p\u003e\n\u003ch2 id=\"pour-conclure\"\u003ePour conclure\u003c/h2\u003e\n\u003cp\u003eD\u0026rsquo;après une lecture rapide des catalogues des deux sites, il semblerait que FUN\noffre beaucoup de cours relativement théoriques ou de culture générale, tandis\nque Coursera axe nettement son offre sur des cours permettant de se forger des\ncompétences pratiques et \u0026ldquo;monnayables\u0026rdquo;.\u003c/p\u003e\n\u003cp\u003eJe n\u0026rsquo;ai pas encore essayé de suivre un MOOC sur le site français\n\u003ca href=\"https://openclassrooms.com\"\u003eOpenClassrooms\u003c/a\u003e (anciennement \u0026ldquo;Le Site du Zéro\u0026rdquo;). Ayant actuellement le\nstatut de demandeur d\u0026rsquo;emploi, j\u0026rsquo;ai même apparemment la possibilité d\u0026rsquo;y ouvrir un\ncompte \u003cem\u003epremium\u003c/em\u003e gratuitement. Cela dit, leur offre est très axée sur le\ndéveloppement web et le développement d\u0026rsquo;applications, et ces domaines ne\nm\u0026rsquo;intéressent vraiment pas\u0026hellip;\u003c/p\u003e\n\u003cp\u003eAu final, je garde une bonne expérience de ces quelques cours.\nC\u0026rsquo;est encourageant de savoir que toute période d\u0026rsquo;inactivité professionnelle peut\nfacilement être mise à profit pour apprendre plein de nouvelles choses grâce\nà une offre en ligne très abondante et surtout sous un format facile. En effet,\npour peu que l\u0026rsquo;élève soit suffisamment intéressé par le sujet, le format général\ndes cours sur ces deux sites permet de s\u0026rsquo;auto-motiver facilement grâce aux\nexercices à rendre régulièrement. Il est aussi bon de savoir que chaque cours\npeut potentiellement être suivi plus légèrement, sans forcément faire les\nexercices, si l\u0026rsquo;on souhaite seulement augmenter sa culture dans un domaine sans\nengager trop de temps dans cette activité.\u003c/p\u003e"
    }
  ]
}
