{
  "version": "https://jsonfeed.org/version/1.1",
  "title": "Guillaume",
  "description": "Recent content in Washington on Guillaume",
  "home_page_url": "https://www.gaullier.org/fr/tags/washington/",
  "feed_url": "https://www.gaullier.org/fr/tags/washington/index.json",
  "authors": [
    {
      "name": "Guillaume Gaullier",
      "url": "https://www.gaullier.org/"
    }
  ],
  "user_comment": "This is a machine-readable full archive of my personal website.",
  "icon": "https://www.gaullier.org/images/logo.png",
  "favicon": "https://www.gaullier.org/favicon.png",
  "language": "fr",
  "items": [
    
    {
      "id": "https://www.gaullier.org/fr/blog/2018/09/08/vacances-ete-2018/",
      "url": "https://www.gaullier.org/fr/blog/2018/09/08/vacances-ete-2018/",
      "title": "Vacances d'été 2018",
      "authors": [
        {
          "name": "Guillaume Gaullier"
        }
      ],
      "date_published": "2018-09-08T00:00:00Z",
      "date_modified": "2018-09-08T00:00:00Z",
      "tags": ["Oregon","Washington","travels"],
      "content_html": "\u003cp\u003eVoilà quelques photos de nos vacances en Washington et Oregon pendant la\ndeuxième semaine d\u0026rsquo;août.\u003c/p\u003e\n\u003cp\u003eNous avons beaucoup roulé :\u003c/p\u003e\n\u003cdiv class=\"embedded-content\"\u003e\n\u003ciframe width=\"100%\" height=\"300px\" frameBorder=\"0\" src=\"https://framacarte.org/en/map/ete-2018_30598?scaleControl=false\u0026miniMap=false\u0026scrollWheelZoom=false\u0026zoomControl=true\u0026allowEdit=false\u0026moreControl=true\u0026searchControl=null\u0026tilelayersControl=null\u0026embedControl=null\u0026datalayersControl=true\u0026onLoadPanel=undefined\u0026captionBar=false\"\u003e\u003c/iframe\u003e\n\u003c/div\u003e\n\u003cp\u003eAprès avoir atterri à SeaTac, nous sommes allés rendre visite à la grand-mère de\nRebecca qui habite à Bellingham, tout près de la frontière avec le Canada.\nVoilà la vue depuis son jardin :\u003c/p\u003e\n\u003cp\u003e\u003cimg src=\"images/bellingham.jpg\" alt=\"Bellingham\"\u003e\u003c/p\u003e\n\u003cp\u003eNous sommes restés une nuit chez elle, puis nous sommes partis pour Centralia\noù nous avons passé trois jours en camping avec le petit frère de Rebecca et\nleur père, pour \u003ca href=\"http://www.centraliacampout.com/\"\u003eune sorte de festival\u003c/a\u003e. Voilà une vue du camping :\u003c/p\u003e\n\u003cp\u003e\u003cimg src=\"images/centralia-1.jpg\" alt=\"Centralia\"\u003e\u003c/p\u003e\n\u003cp\u003eIl n\u0026rsquo;y avait pas de concert, seulement des sessions informelles et des ateliers\nde musique et chant plus ou moins improvisés. Nous avons enseigné à quelques\npersonnes deux morceaux bretons et les danses qui vont avec. Nous avons aussi\nsuivi un atelier animé par \u003ca href=\"http://www.lisaornstein.com/bio/\"\u003eLisa Ornstein\u003c/a\u003e. Cet été, des incendies de\nforêt ont ravagé la côte ouest du continent de la Californie à la Colombie\nBritannique. Même en étant très loin des flammes, l\u0026rsquo;air était très enfumé :\u003c/p\u003e\n\u003cp\u003e\u003cimg src=\"images/centralia-2.jpg\" alt=\"Centralia\"\u003e\u003c/p\u003e\n\u003cp\u003eAprès cela, nous avons roulé jusqu\u0026rsquo;à \u003ca href=\"https://fr.wikipedia.org/wiki/Astoria_(Oregon)\"\u003eAstoria\u003c/a\u003e, une petite ville\nportuaire à l\u0026rsquo;embouchure du \u003ca href=\"https://fr.wikipedia.org/wiki/Columbia_(fleuve)\"\u003efleuve Columbia\u003c/a\u003e. À cet endroit de la\ncôte du Pacifique, c\u0026rsquo;est apparemment normal qu\u0026rsquo;il fasse un temps plus agréable\n\u003ca href=\"/fr/blog/2017/01/30/fetes-en-oregon/\"\u003een hiver\u003c/a\u003e. En août, il faisait plutôt gris et froid\u0026hellip;\u003c/p\u003e\n\u003cp\u003eVoilà le pont qui traverse le fleuve Columbia, reliant les états du Washington\net de l\u0026rsquo;Oregon :\u003c/p\u003e\n\u003cp\u003e\u003cimg src=\"images/astoria-1.jpg\" alt=\"Astoria\"\u003e\u003c/p\u003e\n\u003cp\u003e\u003cimg src=\"images/astoria-2.jpg\" alt=\"Astoria\"\u003e\u003c/p\u003e\n\u003cp\u003e\u003cimg src=\"images/astoria-3.jpg\" alt=\"Astoria\"\u003e\u003c/p\u003e\n\u003cp\u003eCe bateau est un ancien phare flottant, et fait maintenant partie du musée qui\nest sur la photo suivante :\u003c/p\u003e\n\u003cp\u003e\u003cimg src=\"images/astoria-4.jpg\" alt=\"Astoria\"\u003e\u003c/p\u003e\n\u003cp\u003e\u003cimg src=\"images/astoria-5.jpg\" alt=\"Astoria\"\u003e\u003c/p\u003e\n\u003cp\u003eNous avons visité le musée en vitesse car il fermait peu de temps après notre\narrivée :\u003c/p\u003e\n\u003cp\u003e\u003cimg src=\"images/musee-1.jpg\" alt=\"Musée\"\u003e\u003c/p\u003e\n\u003cp\u003e\u003cimg src=\"images/musee-2.jpg\" alt=\"Musée\"\u003e\u003c/p\u003e\n\u003cp\u003e\u003cimg src=\"images/musee-3.jpg\" alt=\"Musée\"\u003e\u003c/p\u003e\n\u003cp\u003eAprès avoir passé l\u0026rsquo;après-midi à Astoria, nous sommes allés installer notre\ntente au camping de \u003ca href=\"https://fr.wikipedia.org/wiki/Fort_Stevens_(Oregon)\"\u003e\u003cem\u003eFort Stevens State Park\u003c/em\u003e\u003c/a\u003e. Nous sommes allés\nfaire un tour à la plage toute proche avant la nuit :\u003c/p\u003e\n\u003cp\u003e\u003cimg src=\"images/fort-stevens-1.jpg\" alt=\"Fort Stevens\"\u003e\u003c/p\u003e\n\u003cp\u003e\u003cimg src=\"images/fort-stevens-2.jpg\" alt=\"Fort Stevens\"\u003e\u003c/p\u003e\n\u003cp\u003e\u003cimg src=\"images/fort-stevens-3.jpg\" alt=\"Fort Stevens\"\u003e\u003c/p\u003e\n\u003cp\u003eLe lendemain matin, avant de reprendre la route, nous sommes allés jusqu\u0026rsquo;au bout\nde la pointe qui avance dans l\u0026rsquo;embouchure du fleuve :\u003c/p\u003e\n\u003cp\u003e\u003cimg src=\"images/fort-stevens-4.jpg\" alt=\"Fort Stevens\"\u003e\u003c/p\u003e\n\u003cp\u003e\u003cimg src=\"images/fort-stevens-5.jpg\" alt=\"Fort Stevens\"\u003e\u003c/p\u003e\n\u003cp\u003eDans la vue suivante, le Pacifique se trouve à gauche de cette jetée et le\nfleuve juste à droite (hors du cadre) :\u003c/p\u003e\n\u003cp\u003e\u003cimg src=\"images/fort-stevens-6.jpg\" alt=\"Fort Stevens\"\u003e\u003c/p\u003e\n\u003cp\u003eOn regarde maintenant vers le sud, avec le Pacifique sur la droite :\u003c/p\u003e\n\u003cp\u003e\u003cimg src=\"images/fort-stevens-7.jpg\" alt=\"Fort Stevens\"\u003e\u003c/p\u003e\n\u003cp\u003eEn route pour Dayton, notre prochaine étape pour aller rendre visite au\ngrand-père (de l\u0026rsquo;autre côté de la famille) de Rebecca, nous nous sommes arrêtés\nà Gearhart pour le petit déjeûner. Ce petit village a une vraie pâtisserie !\u003c/p\u003e\n\u003cp\u003e\u003cimg src=\"images/gearhart.jpg\" alt=\"Gearhart\"\u003e\u003c/p\u003e\n\u003cp\u003eNous voilà à Dayton, une petit ville très calme :\u003c/p\u003e\n\u003cp\u003e\u003cimg src=\"images/dayton-1.jpg\" alt=\"Dayton\"\u003e\u003c/p\u003e\n\u003cp\u003eLes noisetiers se portent toujours bien depuis\n\u003ca href=\"/fr/blog/2017/07/29/voyage-en-bateau/\"\u003enotre dernier passage\u003c/a\u003e :\u003c/p\u003e\n\u003cp\u003e\u003cimg src=\"images/dayton-2.jpg\" alt=\"Dayton\"\u003e\u003c/p\u003e\n\u003cp\u003e\u003cimg src=\"images/dayton-3.jpg\" alt=\"Dayton\"\u003e\u003c/p\u003e\n\u003cp\u003eNous avons passé les deux derniers jours du voyage à Lebanon, chez les parents\nde Rebecca. Nous avons visité \u003ca href=\"https://en.wikipedia.org/wiki/Thompson%27s_Mills_State_Heritage_Site\"\u003eun ancien moulin\u003c/a\u003e qui a été en activité\npendant plus de 100 ans et est maintenant un musée.\u003c/p\u003e\n\u003cp\u003e\u003cimg src=\"images/mill-1.jpg\" alt=\"Thompson\u0026amp;rsquo;s Mills\"\u003e\u003c/p\u003e\n\u003cp\u003e\u003cimg src=\"images/mill-2.jpg\" alt=\"Thompson\u0026amp;rsquo;s Mills\"\u003e\u003c/p\u003e\n\u003cp\u003eIl n\u0026rsquo;y a pas tout à fait 50 étoiles sur ce drapeau, il doit être ancien :\u003c/p\u003e\n\u003cp\u003e\u003cimg src=\"images/mill-3.jpg\" alt=\"Thompson\u0026amp;rsquo;s Mills\"\u003e\u003c/p\u003e\n\u003cp\u003e\u003cimg src=\"images/mill-4.jpg\" alt=\"Thompson\u0026amp;rsquo;s Mills\"\u003e\u003c/p\u003e\n\u003cp\u003e\u003cimg src=\"images/mill-5.jpg\" alt=\"Thompson\u0026amp;rsquo;s Mills\"\u003e\u003c/p\u003e\n\u003cp\u003e\u003cimg src=\"images/mill-6.jpg\" alt=\"Thompson\u0026amp;rsquo;s Mills\"\u003e\u003c/p\u003e\n\u003cp\u003e\u003cimg src=\"images/mill-7.jpg\" alt=\"Thompson\u0026amp;rsquo;s Mills\"\u003e\u003c/p\u003e\n\u003cp\u003e\u003cimg src=\"images/mill-8.jpg\" alt=\"Thompson\u0026amp;rsquo;s Mills\"\u003e\u003c/p\u003e\n\u003cp\u003e\u003cimg src=\"images/mill-9.jpg\" alt=\"Thompson\u0026amp;rsquo;s Mills\"\u003e\u003c/p\u003e\n\u003cp\u003eNous avons aussi visité le carrousel de la petite ville d\u0026rsquo;Albany, qui a ouvert\ntrès récemment.\u003c/p\u003e\n\u003cp\u003e\u003cimg src=\"images/carousel-1.jpg\" alt=\"Carrousel\"\u003e\u003c/p\u003e\n\u003cp\u003e\u003cimg src=\"images/carousel-2.jpg\" alt=\"Carrousel\"\u003e\u003c/p\u003e\n\u003cp\u003e\u003cimg src=\"images/carousel-3.jpg\" alt=\"Carrousel\"\u003e\u003c/p\u003e\n\u003cp\u003eIl est entièrement géré par des bénévoles, y compris pour la fabrication de\nnouvelles pièces pour le manège. L\u0026rsquo;atelier est ouvert aux visiteurs, et contient\nun bestiaire impressionnant d\u0026rsquo;animaux en bois peint destinés à compléter le\nmanège. Chaque pièce est financée par des dons (les donateurs peuvent choisir un\nanimal et un nom), puis sculptée et peinte par des bénévoles.\u003c/p\u003e\n\u003cp\u003e\u003cimg src=\"images/carousel-4.jpg\" alt=\"Carrousel\"\u003e\u003c/p\u003e\n\u003cp\u003e\u003cimg src=\"images/carousel-5.jpg\" alt=\"Carrousel\"\u003e\u003c/p\u003e\n\u003cp\u003e\u003cimg src=\"images/carousel-6.jpg\" alt=\"Carrousel\"\u003e\u003c/p\u003e\n\u003cp\u003e\u003cimg src=\"images/carousel-7.jpg\" alt=\"Carrousel\"\u003e\u003c/p\u003e\n\u003cp\u003e\u003cimg src=\"images/carousel-8.jpg\" alt=\"Carrousel\"\u003e\u003c/p\u003e\n\u003cp\u003e\u003cimg src=\"images/carousel-9.jpg\" alt=\"Carrousel\"\u003e\u003c/p\u003e\n\u003cp\u003e\u003cimg src=\"images/carousel-10.jpg\" alt=\"Carrousel\"\u003e\u003c/p\u003e\n\u003cp\u003eDans les photos suivantes, on voit que les dessins qui servent de modèles aux\nsculpteurs sont déjà splendides.\u003c/p\u003e\n\u003cp\u003e\u003cimg src=\"images/carousel-11.jpg\" alt=\"Carrousel\"\u003e\u003c/p\u003e\n\u003cp\u003e\u003cimg src=\"images/carousel-12.jpg\" alt=\"Carrousel\"\u003e\u003c/p\u003e\n\u003cp\u003e\u003cimg src=\"images/carousel-13.jpg\" alt=\"Carrousel\"\u003e\u003c/p\u003e\n\u003cp\u003e\u003cimg src=\"images/carousel-14.jpg\" alt=\"Carrousel\"\u003e\u003c/p\u003e\n\u003cp\u003e\u003cimg src=\"images/carousel-15.jpg\" alt=\"Carrousel\"\u003e\u003c/p\u003e\n\u003cp\u003e\u003cimg src=\"images/carousel-16.jpg\" alt=\"Carrousel\"\u003e\u003c/p\u003e\n\u003cp\u003e\u003cimg src=\"images/carousel-17.jpg\" alt=\"Carrousel\"\u003e\u003c/p\u003e\n\u003cp\u003e\u003cimg src=\"images/carousel-18.jpg\" alt=\"Carrousel\"\u003e\u003c/p\u003e\n\u003cp\u003e\u003cimg src=\"images/carousel-19.jpg\" alt=\"Carrousel\"\u003e\u003c/p\u003e\n\u003cp\u003e\u003cimg src=\"images/carousel-20.jpg\" alt=\"Carrousel\"\u003e\u003c/p\u003e\n\u003cp\u003eLes détails sont impressionnants, comme par exemple les plumes du griffon :\u003c/p\u003e\n\u003cp\u003e\u003cimg src=\"images/carousel-21.jpg\" alt=\"Carrousel\"\u003e\u003c/p\u003e\n\u003cp\u003e\u003cimg src=\"images/carousel-22.jpg\" alt=\"Carrousel\"\u003e\u003c/p\u003e\n\u003cp\u003eÀ notre retour à Boulder, nous avons vu à nouveau de la fumée en provenance des\nincendies en Colombie Britannique. C\u0026rsquo;est très très loin, mais il suffisait que\nle vent souffle dans notre direction pour recevoir des quantités inquiétantes de\nfumée. Voilà la vue depuis l\u0026rsquo;entrée du bâtiment où je travaille, en début et fin\nde journée le lendemain de notre retour :\u003c/p\u003e\n\u003cp\u003e\u003cimg src=\"images/smoky-boulder-1.jpg\" alt=\"Smoky Boulder\"\u003e\u003c/p\u003e\n\u003cp\u003e\u003cimg src=\"images/smoky-boulder-2.jpg\" alt=\"Smoky Boulder\"\u003e\u003c/p\u003e"
    }, 
    {
      "id": "https://www.gaullier.org/fr/blog/2017/07/29/voyage-en-bateau/",
      "url": "https://www.gaullier.org/fr/blog/2017/07/29/voyage-en-bateau/",
      "title": "Voyage en bateau",
      "authors": [
        {
          "name": "Guillaume Gaullier"
        }
      ],
      "date_published": "2017-07-29T00:00:00Z",
      "date_modified": "2017-07-29T00:00:00Z",
      "tags": ["travels","Washington","Oregon"],
      "content_html": "\u003cp\u003eLa première semaine de juillet, nous sommes allés à Seattle voir le petit frère\nde Rebecca. Il vit sur un bateau, et nous avait proposé un petit voyage de\nquelques jours pendant l\u0026rsquo;été. Voilà quelques photos prises pendant le voyage.\u003c/p\u003e\n\u003cp\u003eVoilà pour commencer une carte qui montre notre trajet et nos escales, pour\nsituer un peu tout ça :\u003c/p\u003e\n\u003cdiv class=\"embedded-content\"\u003e\n\u003ciframe frameBorder=\"0\" src=\"https://framacarte.org/fr/map/seattle-ete-2017_11733?scaleControl=true\u0026miniMap=false\u0026scrollWheelZoom=true\u0026zoomControl=true\u0026allowEdit=false\u0026moreControl=true\u0026searchControl=null\u0026tilelayersControl=null\u0026embedControl=null\u0026datalayersControl=false\u0026onLoadPanel=undefined\u0026captionBar=false\u0026datalayers=18772\u0026fullscreenControl=true\u0026editinosmControl=false#8/48.201/-122.075\"\u003e \u003c/iframe\u003e\n\u003c/div\u003e\n\u003cp\u003eVoilà quelques photos prises à Seattle, en sortant du canal :\u003c/p\u003e\n\u003cp\u003e\u003cimg src=\"images/seattle-1.jpg\" alt=\"Seattle\"\u003e\u003c/p\u003e\n\u003cp\u003e\u003cimg src=\"images/seattle-2.jpg\" alt=\"Seattle\"\u003e\u003c/p\u003e\n\u003cp\u003e\u003cimg src=\"images/seattle-3.jpg\" alt=\"Seattle\"\u003e\u003c/p\u003e\n\u003cp\u003e\u003cimg src=\"images/seattle-4.jpg\" alt=\"Seattle\"\u003e\u003c/p\u003e\n\u003cp\u003eNous voilà maintenant dans le \u003ca href=\"https://fr.wikipedia.org/wiki/Puget_Sound\"\u003e\u003cem\u003ePuget Sound\u003c/em\u003e\u003c/a\u003e. On voit la côte\npartout autour, un peu comme dans le golfe du Morbihan, mais en beaucoup plus\ngrand.\u003c/p\u003e\n\u003cp\u003e\u003cimg src=\"images/puget-sound-1.jpg\" alt=\"Puget Sound\"\u003e\u003c/p\u003e\n\u003cp\u003e\u003cimg src=\"images/puget-sound-2.jpg\" alt=\"Puget Sound\"\u003e\u003c/p\u003e\n\u003cp\u003e\u003cimg src=\"images/puget-sound-3.jpg\" alt=\"Puget Sound\"\u003e\u003c/p\u003e\n\u003cp\u003eL\u0026rsquo;oncle et la tante de Rebecca nous ont accompagnés pendant une partie du\nvoyage, on aperçoit leur bateau sur cette photo :\u003c/p\u003e\n\u003cp\u003e\u003cimg src=\"images/puget-sound-4.jpg\" alt=\"Puget Sound\"\u003e\u003c/p\u003e\n\u003cp\u003eAprès quelques heures de navigation très calme depuis Seattle, nous arrivons à\nPort Townsend, notre première escale :\u003c/p\u003e\n\u003cp\u003e\u003cimg src=\"images/port-townsend-1.jpg\" alt=\"Port Townsend\"\u003e\u003c/p\u003e\n\u003cp\u003e\u003cimg src=\"images/port-townsend-2.jpg\" alt=\"Port Townsend\"\u003e\u003c/p\u003e\n\u003cp\u003e\u003cimg src=\"images/port-townsend-3.jpg\" alt=\"Port Townsend\"\u003e\u003c/p\u003e\n\u003cp\u003eC\u0026rsquo;est une petite ville magnifique, j\u0026rsquo;ai pris beaucoup de photos. Je ne peux pas\ntout mettre en ligne, mais voilà quelques photos qui montrent bien les alentours\nde la ville :\u003c/p\u003e\n\u003cp\u003e\u003cimg src=\"images/port-townsend-4.jpg\" alt=\"Port Townsend\"\u003e\u003c/p\u003e\n\u003cp\u003e\u003cimg src=\"images/port-townsend-5.jpg\" alt=\"Port Townsend\"\u003e\u003c/p\u003e\n\u003cp\u003e\u003cimg src=\"images/port-townsend-6.jpg\" alt=\"Port Townsend\"\u003e\u003c/p\u003e\n\u003cp\u003e\u003cimg src=\"images/port-townsend-7.jpg\" alt=\"Port Townsend\"\u003e\u003c/p\u003e\n\u003cp\u003eJ\u0026rsquo;ai adoré ces paysages de littoral avec des montagnes très hautes en arrière\nplan :\u003c/p\u003e\n\u003cp\u003e\u003cimg src=\"images/port-townsend-8.jpg\" alt=\"Port Townsend\"\u003e\u003c/p\u003e\n\u003cp\u003e\u003cimg src=\"images/port-townsend-9.jpg\" alt=\"Port Townsend\"\u003e\u003c/p\u003e\n\u003cp\u003e\u003cimg src=\"images/port-townsend-10.jpg\" alt=\"Port Townsend\"\u003e\u003c/p\u003e\n\u003cp\u003eLe lendemain de notre arrivée à Port Townsend, nous avons marché jusqu\u0026rsquo;à \u003ca href=\"https://en.wikipedia.org/wiki/Fort_Worden\"\u003eFort\nWorden\u003c/a\u003e, un ancien fort maintenant reconverti en \u003cem\u003estate park\u003c/em\u003e. Sur\ncette première photo, on aperçoit la jetée du fort, et \u003ca href=\"https://fr.wikipedia.org/wiki/Mont_Baker\"\u003eMount\nBaker\u003c/a\u003e en arrière plan :\u003c/p\u003e\n\u003cp\u003e\u003cimg src=\"images/fort-worden-1.jpg\" alt=\"Fort Worden\"\u003e\u003c/p\u003e\n\u003cp\u003e\u003cimg src=\"images/fort-worden-2.jpg\" alt=\"Fort Worden\"\u003e\u003c/p\u003e\n\u003cp\u003eNous sommes allés à cet endroit pour assister à un concert du \u003ca href=\"http://centrum.org/festival-of-american-fiddle-tunes-performances\"\u003efestival Fiddle\nTunes\u003c/a\u003e, qui a lieu chaque année à cet endroit pendant la première\nsemaine de juillet.\u003c/p\u003e\n\u003cp\u003e\u003cimg src=\"images/fort-worden-3.jpg\" alt=\"Fort Worden\"\u003e\u003c/p\u003e\n\u003cp\u003eC\u0026rsquo;était le 4 juillet, la fête nationale, et une grande fête était organisée dans\nle parc. Il y avait un groupe de jazz (des soldats), un rally de voitures\nanciennes :\u003c/p\u003e\n\u003cp\u003e\u003cimg src=\"images/fort-worden-4.jpg\" alt=\"Fort Worden\"\u003e\u003c/p\u003e\n\u003cp\u003eIl y avait aussi quelques \u003cem\u003efood trucks\u003c/em\u003e, dont celui-ci qui a particulièrement\nattiré mon attention :\u003c/p\u003e\n\u003cp\u003e\u003cimg src=\"images/fort-worden-5.jpg\" alt=\"Fort Worden\"\u003e\u003c/p\u003e\n\u003cp\u003eJe suis allé discuter avec ces gens, et c\u0026rsquo;étaient de vrais bretons qui vivent\naux États-Unis depuis longtemps ! J\u0026rsquo;ai appris qu\u0026rsquo;ils ne viennent pas exactement\nde Quimper (mais de quelque part dans le Morbihan, je ne me souviens plus\nexactement où), mais qu\u0026rsquo;ils ont nommé leur crêperie d\u0026rsquo;après la \u003ca href=\"https://en.wikipedia.org/wiki/Quimper_Peninsula\"\u003epéninsule de\nQuimper\u003c/a\u003e, pour donner un nom familier aux habitants de la\nrégion tout en donnant une référence bretonne impossible à rater pour n\u0026rsquo;importe\nquel touriste français. J\u0026rsquo;ai donc appris que la péninsule de Quimper, où est\nsituée Port Townsend, a été nommée par \u003ca href=\"https://en.wikipedia.org/wiki/Manuel_Quimper\"\u003eManuel Quimper\u003c/a\u003e (\u003ca href=\"https://fr.wikipedia.org/wiki/Manuel_Quimper\"\u003epage\nwikipedia en français\u003c/a\u003e, beaucoup moins fournie), un\nexplorateur espagnol né d\u0026rsquo;une mère espagnole et d\u0026rsquo;un père\u0026hellip; français ! Je n\u0026rsquo;ai\npas fait assez de recherches pour déterminer si son père était breton, je vous\nlaisse donc le loisir de rechercher cette information.\u003c/p\u003e\n\u003cp\u003eNous sommes rentrés à Port Townsend par la plage :\u003c/p\u003e\n\u003cp\u003e\u003cimg src=\"images/fort-worden-6.jpg\" alt=\"Fort Worden\"\u003e\u003c/p\u003e\n\u003cp\u003eLe jour suivant, nous avons continué le voyage vers le nord et avons fait une\ncourte escale en face de \u003ca href=\"https://en.wikipedia.org/wiki/Lopez_Island\"\u003eLopez Island\u003c/a\u003e :\u003c/p\u003e\n\u003cp\u003e\u003cimg src=\"images/lopez-island-1.jpg\" alt=\"Lopez Island\"\u003e\u003c/p\u003e\n\u003cp\u003e\u003cimg src=\"images/lopez-island-2.jpg\" alt=\"Lopez Island\"\u003e\u003c/p\u003e\n\u003cp\u003e\u003cimg src=\"images/lopez-island-3.jpg\" alt=\"Lopez Island\"\u003e\u003c/p\u003e\n\u003cp\u003eNous sommes arrivés en fin d\u0026rsquo;après-midi à Anacortes, notre seconde escale.\nJe n\u0026rsquo;ai qu\u0026rsquo;une seule photo prise dans le port (et floue\u0026hellip;) :\u003c/p\u003e\n\u003cp\u003e\u003cimg src=\"images/anacortes.jpg\" alt=\"Anacortes\"\u003e\u003c/p\u003e\n\u003cp\u003eNous avons dîné avec la grand-mère paternelle de Rebecca, qui habite à\nBellingham et a fait le trajet jusqu\u0026rsquo;à Anacortes pour nous voir. Le lendemain,\nnous sommes repartis pour Seattle. Voilà quelques photos prises en chemin.\u003c/p\u003e\n\u003cp\u003eUn \u003ca href=\"https://fr.wikipedia.org/wiki/Pygargue_%C3%A0_t%C3%AAte_blanche\"\u003epygargue à tête blanche\u003c/a\u003e (en anglais \u003cem\u003ebald eagle\u003c/em\u003e), très flou\u0026hellip;\non dirait presque une aquarelle :\u003c/p\u003e\n\u003cp\u003e\u003cimg src=\"images/retour-1.jpg\" alt=\"Retour\"\u003e\u003c/p\u003e\n\u003cp\u003eL\u0026rsquo;entrée d\u0026rsquo;un canal qui n\u0026rsquo;a pas l\u0026rsquo;air d\u0026rsquo;avoir de nom (j\u0026rsquo;ai bien cherché sur la\ncarte) :\u003c/p\u003e\n\u003cp\u003e\u003cimg src=\"images/retour-2.jpg\" alt=\"Retour\"\u003e\u003c/p\u003e\n\u003cp\u003eLa petite ville de La Conner :\u003c/p\u003e\n\u003cp\u003e\u003cimg src=\"images/retour-3.jpg\" alt=\"Retour\"\u003e\u003c/p\u003e\n\u003cp\u003eLa sortie du canal :\u003c/p\u003e\n\u003cp\u003e\u003cimg src=\"images/retour-4.jpg\" alt=\"Retour\"\u003e\u003c/p\u003e\n\u003cp\u003eJe n\u0026rsquo;ai pas d\u0026rsquo;autres photos jusqu\u0026rsquo;à l\u0026rsquo;arrivée à Seattle.\u003c/p\u003e\n\u003cp\u003eAprès le voyage en bateau, nous sommes allés en Oregon pour deux jours, pour\nrendre visite au grand-père maternel de Rebecca à \u003ca href=\"https://goo.gl/maps/GhkjUL6AqjJ2\"\u003eDayton\u003c/a\u003e. Il faisait\ntrès chaud, un temps parfait pour une promenade à l\u0026rsquo;ombre des noisetiers :\u003c/p\u003e\n\u003cp\u003e\u003cimg src=\"images/dayton-1.jpg\" alt=\"Dayton\"\u003e\u003c/p\u003e\n\u003cp\u003e\u003cimg src=\"images/dayton-2.jpg\" alt=\"Dayton\"\u003e\u003c/p\u003e\n\u003cp\u003eNous sommes finalement repartis le jour suivant depuis l\u0026rsquo;aéroport de Portland,\ntoujours avec un temps magnifique idéal pour observer la géographie locale.\u003c/p\u003e\n\u003cp\u003eSur cette photo, les quatre volcans sont \u003ca href=\"https://en.wikipedia.org/wiki/Mount_Hood\"\u003eMount Hood\u003c/a\u003e au premier plan,\n\u003ca href=\"https://en.wikipedia.org/wiki/Mount_St._Helens\"\u003eMount St Helens\u003c/a\u003e à gauche, \u003ca href=\"https://en.wikipedia.org/wiki/Mount_Adams_(Washington)\"\u003eMount Adams\u003c/a\u003e à droite, et \u003ca href=\"https://en.wikipedia.org/wiki/Mount_Rainier\"\u003eMount\nRainier\u003c/a\u003e au loin en arrière plan :\u003c/p\u003e\n\u003cp\u003e\u003cimg src=\"images/avion-1.jpg\" alt=\"Avion\"\u003e\u003c/p\u003e\n\u003cp\u003eEt voilà une vue de l\u0026rsquo;est de l\u0026rsquo;Oregon, presque désertique comparé à la\n\u003ca href=\"https://en.wikipedia.org/wiki/Willamette_Valley\"\u003eWillamette Valley\u003c/a\u003e :\u003c/p\u003e\n\u003cp\u003e\u003cimg src=\"images/avion-2.jpg\" alt=\"Avion\"\u003e\u003c/p\u003e\n\u003cp\u003eC\u0026rsquo;était un superbe voyage !\u003c/p\u003e"
    }
  ]
}
