{
  "version": "https://jsonfeed.org/version/1.1",
  "title": "Guillaume",
  "description": "Recent content in Australie on Guillaume",
  "home_page_url": "https://www.gaullier.org/fr/tags/australie/",
  "feed_url": "https://www.gaullier.org/fr/tags/australie/index.json",
  "authors": [
    {
      "name": "Guillaume Gaullier",
      "url": "https://www.gaullier.org/"
    }
  ],
  "user_comment": "This is a machine-readable full archive of my personal website.",
  "icon": "https://www.gaullier.org/images/logo.png",
  "favicon": "https://www.gaullier.org/favicon.png",
  "language": "fr",
  "items": [
    
    {
      "id": "https://www.gaullier.org/fr/blog/2017/10/21/voyage-en-australie/",
      "url": "https://www.gaullier.org/fr/blog/2017/10/21/voyage-en-australie/",
      "title": "Voyage en Australie",
      "authors": [
        {
          "name": "Guillaume Gaullier"
        }
      ],
      "date_published": "2017-10-21T00:00:00Z",
      "date_modified": "2017-10-21T00:00:00Z",
      "tags": ["travels","australia"],
      "content_html": "\u003cp\u003eLe 30 septembre dernier, nous étions invités à un mariage en Australie,\nà \u003ca href=\"https://fr.wikipedia.org/wiki/Perth_(Australie-Occidentale)\"\u003ePerth\u003c/a\u003e. Nous avons profité de cette occasion pour passer une dizaine\nde jours dans la région pour faire un peu de tourisme. Voilà des photos prises\nlà-bas. :-)\u003c/p\u003e\n\u003cp\u003eJe m\u0026rsquo;amuse encore une fois à dessiner une carte pour donner une vue d\u0026rsquo;ensemble\ndu voyage :\u003c/p\u003e\n\u003cdiv class=\"embedded-content\"\u003e\n\u003ciframe frameBorder=\"0\" src=\"https://framacarte.org/fr/map/australie-2017_13857?scaleControl=true\u0026miniMap=false\u0026scrollWheelZoom=true\u0026zoomControl=true\u0026allowEdit=false\u0026moreControl=true\u0026searchControl=null\u0026tilelayersControl=null\u0026embedControl=null\u0026datalayersControl=false\u0026onLoadPanel=undefined\u0026captionBar=false\u0026datalayers=22528\u0026fullscreenControl=true\u0026editinosmControl=false#7/-33.128/115.862\"\u003e \u003c/iframe\u003e\n\u003c/div\u003e\n\u003cp\u003eNous sommes partis de Bedfordale, là où habitent les amis qui se mariaient (et\nqui nous hébergeaint), et avons fait une première escale sur la côte, dans la\nville de Bunbury, qui ressemble à ça :\u003c/p\u003e\n\u003cp\u003e\u003cimg src=\"images/bunbury-1.jpg\" alt=\"Bunbury\"\u003e\u003c/p\u003e\n\u003cp\u003e\u003cimg src=\"images/bunbury-2.jpg\" alt=\"Bunbury\"\u003e\u003c/p\u003e\n\u003cp\u003e\u003cimg src=\"images/bunbury-3.jpg\" alt=\"Bunbury\"\u003e\u003c/p\u003e\n\u003cp\u003e\u003cimg src=\"images/bunbury-4.jpg\" alt=\"Bunbury\"\u003e\u003c/p\u003e\n\u003cp\u003ePuis le même jour, nous sommes allés jusqu\u0026rsquo;à Margaret River, où nous avons passé\ndeux nuits. Cette petite ville est située au milieu d\u0026rsquo;une région viticole, et\nnous avons fait une visite guidée de 4 vignobles dans les environs, où ces\nphotos ont été prises :\u003c/p\u003e\n\u003cp\u003e\u003cimg src=\"images/margaret-river-1.jpg\" alt=\"Margaret River\"\u003e\u003c/p\u003e\n\u003cp\u003e\u003cimg src=\"images/margaret-river-2.jpg\" alt=\"Margaret River\"\u003e\u003c/p\u003e\n\u003cp\u003eEn repartant de Margaret River nous nous sommes arrêtés admirer la côte au\n\u003cem\u003eSurfers Point\u003c/em\u003e :\u003c/p\u003e\n\u003cp\u003e\u003cimg src=\"images/surfers-point-1.jpg\" alt=\"Surfers Point\"\u003e\u003c/p\u003e\n\u003cp\u003e\u003cimg src=\"images/surfers-point-2.jpg\" alt=\"Surfers Point\"\u003e\u003c/p\u003e\n\u003cp\u003e\u003cimg src=\"images/surfers-point-3.jpg\" alt=\"Surfers Point\"\u003e\u003c/p\u003e\n\u003cp\u003e\u003cimg src=\"images/surfers-point-4.jpg\" alt=\"Surfers Point\"\u003e\u003c/p\u003e\n\u003cp\u003ePlutôt que de prendre la route principale, nous avons suivi \u003cem\u003eCaves Road\u003c/em\u003e, et\navons fait une escale pour visiter une des grottes :\u003c/p\u003e\n\u003cp\u003e\u003cimg src=\"images/cave-1.jpg\" alt=\"Grotte\"\u003e\u003c/p\u003e\n\u003cp\u003eDe l\u0026rsquo;intérieur de la grotte, on peut voir des racines d\u0026rsquo;arbres qui ont percé le\ntoit de la grotte et continuent de pousser pour aller un jour collecter l\u0026rsquo;eau\nqu\u0026rsquo;il y a au fond :\u003c/p\u003e\n\u003cp\u003e\u003cimg src=\"images/cave-2.jpg\" alt=\"Grotte\"\u003e\u003c/p\u003e\n\u003cp\u003eNous avons ensuite roulé jusqu\u0026rsquo;au \u003ca href=\"https://fr.wikipedia.org/wiki/Cap_Leeuwin\"\u003eCap Leeuwin\u003c/a\u003e :\u003c/p\u003e\n\u003cp\u003e\u003cimg src=\"images/cape-leeuwin-1.jpg\" alt=\"Cap Leeuwin\"\u003e\u003c/p\u003e\n\u003cp\u003e\u003cimg src=\"images/cape-leeuwin-2.jpg\" alt=\"Cap Leeuwin\"\u003e\u003c/p\u003e\n\u003cp\u003e\u003cimg src=\"images/cape-leeuwin-3.jpg\" alt=\"Cap Leeuwin\"\u003e\u003c/p\u003e\n\u003cp\u003e\u003cimg src=\"images/cape-leeuwin-4.jpg\" alt=\"Cap Leeuwin\"\u003e\u003c/p\u003e\n\u003cp\u003eAprès le Cap, nous avons fait une très longue étape jusqu\u0026rsquo;à Walpole, où nous\nsommes restés une nuit. Le lendemain, nous avons fait une courte rando en forêt\npeu après Walpole :\u003c/p\u003e\n\u003cp\u003e\u003cimg src=\"images/forest-1.jpg\" alt=\"Forêt\"\u003e\u003c/p\u003e\n\u003cp\u003e\u003cimg src=\"images/forest-2.jpg\" alt=\"Forêt\"\u003e\u003c/p\u003e\n\u003cp\u003e\u003cimg src=\"images/forest-3.jpg\" alt=\"Forêt\"\u003e\u003c/p\u003e\n\u003cp\u003e\u003cimg src=\"images/forest-4.jpg\" alt=\"Forêt\"\u003e\u003c/p\u003e\n\u003cp\u003ePuis nous sommes allés jusqu\u0026rsquo;à une autre forêt, plus loin sur la route, qui\noffrait une grande passerelle appelée \u003cem\u003eTree Top Walk\u003c/em\u003e, pour se promener près de\nla cîme des arbres jusqu\u0026rsquo;à 40 m de hauteur (j\u0026rsquo;ai eu un peu le vertige\u0026hellip; Rebecca\nn\u0026rsquo;a pas eu de problème) :\u003c/p\u003e\n\u003cp\u003e\u003cimg src=\"images/tree-top-1.jpg\" alt=\"Tree Top Walk\"\u003e\u003c/p\u003e\n\u003cp\u003e\u003cimg src=\"images/tree-top-2.jpg\" alt=\"Tree Top Walk\"\u003e\u003c/p\u003e\n\u003cp\u003e\u003cimg src=\"images/tree-top-3.jpg\" alt=\"Tree Top Walk\"\u003e\u003c/p\u003e\n\u003cp\u003e\u003cimg src=\"images/tree-top-4.jpg\" alt=\"Tree Top Walk\"\u003e\u003c/p\u003e\n\u003cp\u003e\u003cimg src=\"images/tree-top-5.jpg\" alt=\"Tree Top Walk\"\u003e\u003c/p\u003e\n\u003cp\u003e\u003cimg src=\"images/tree-top-6.jpg\" alt=\"Tree Top Walk\"\u003e\u003c/p\u003e\n\u003cp\u003eAprès ça, la voiture que nous utilisions est tombée en panne : c\u0026rsquo;était un\nproblème mineur, mais qui nous a quand même empêchés de continuer (nous aurions\nfait plus de dégâts en continuant\u0026hellip;). Bien sûr c\u0026rsquo;est arrivé au milieu de nulle\npart, où les téléphones portables n\u0026rsquo;avaient aucun réseau. Heureusement nous\nétions tout près d\u0026rsquo;une maison quand nous avons dû nous arrêter, et ces gens nous\nont aidés à appeler une dépanneuse. Nous nous sommes faits remorquer jusqu\u0026rsquo;à la\nville de Denmark, plus loin sur notre itinéraire, où nous sommes restés bloqués\ndeux jours. Car bien sûr, en plus de tomber en panne au milieu de nulle part,\nc\u0026rsquo;est arrivé un dimanche veille de jour férié (l\u0026rsquo;anniversaire de la reine ; qui\nd\u0026rsquo;ailleurs n\u0026rsquo;était pas le vrai jour de son anniversaire, car nous avons appris\nque les différents états et territoires d\u0026rsquo;Australie fêtent cet anniversaire\nà des dates différentes). La météo était misérable pendant ces deux jours, donc\nnous avons surtout visité la boulangerie de Denmark\u0026hellip; et aussi la poste, car\nnous avons eu du temps pour écrire des cartes postales. À la poste de Denmark,\nun client juste devant nous dans la file venait se plaindre que son courrier\narrivait au Danemark ! (le pays d\u0026rsquo;Europe, pas la ville de Denmark en Australie).\nUne fois mardi arrivé, et le garagiste ouvert, il a suffi de quelques heures\npour réparer la voiture. :-) Nous sommes alors rentrés à Bedfordale directement,\navec seulement une courte escale à Kojonup. Nous avions encore trois jours\ndevant nous, donc aucun risque de rater le mariage, mais nous voulions avoir le\ntemps de visiter \u003ca href=\"https://fr.wikipedia.org/wiki/Rottnest_Island\"\u003e\u003cem\u003eRottnest Island\u003c/em\u003e\u003c/a\u003e. Nous avons fait une bonne partie\nde l\u0026rsquo;île en vélo, et les photos suivantes ont été prises là-bas :\u003c/p\u003e\n\u003cp\u003e\u003cimg src=\"images/rottnest-1.jpg\" alt=\"Rottnest Island\"\u003e\u003c/p\u003e\n\u003cp\u003eCette île abrite un petit marsupial appelé le \u003ca href=\"https://fr.wikipedia.org/wiki/Quokka\"\u003equokka\u003c/a\u003e. Ces animaux\nn\u0026rsquo;ont pas de prédateurs sur l\u0026rsquo;île, et ils ne sont donc pas du tout effrayés par\nles humains.\u003c/p\u003e\n\u003cp\u003e\u003cimg src=\"images/rottnest-2.jpg\" alt=\"Rottnest Island\"\u003e\u003c/p\u003e\n\u003cp\u003e\u003cimg src=\"images/rottnest-3.jpg\" alt=\"Rottnest Island\"\u003e\u003c/p\u003e\n\u003cp\u003e\u003cimg src=\"images/rottnest-4.jpg\" alt=\"Rottnest Island\"\u003e\u003c/p\u003e\n\u003cp\u003e\u003cimg src=\"images/rottnest-5.jpg\" alt=\"Rottnest Island\"\u003e\u003c/p\u003e\n\u003cp\u003e\u003cimg src=\"images/rottnest-6.jpg\" alt=\"Rottnest Island\"\u003e\u003c/p\u003e\n\u003cp\u003e\u003cimg src=\"images/rottnest-7.jpg\" alt=\"Rottnest Island\"\u003e\u003c/p\u003e\n\u003cp\u003e\u003cimg src=\"images/rottnest-8.jpg\" alt=\"Rottnest Island\"\u003e\u003c/p\u003e\n\u003cp\u003e\u003cimg src=\"images/rottnest-9.jpg\" alt=\"Rottnest Island\"\u003e\u003c/p\u003e\n\u003cp\u003eÀ la fin de notre séjour, nous avons passé une journée à Perth, principalement\npour voir \u003cem\u003eKing\u0026rsquo;s Park\u003c/em\u003e où les quelques photos suivantes (ainsi que certaines\nphotos de fleurs à la fin de l\u0026rsquo;article) ont été prises :\u003c/p\u003e\n\u003cp\u003e\u003cimg src=\"images/perth-1.jpg\" alt=\"Perth\"\u003e\u003c/p\u003e\n\u003cp\u003e\u003cimg src=\"images/perth-2.jpg\" alt=\"Perth\"\u003e\u003c/p\u003e\n\u003cp\u003e\u003cimg src=\"images/perth-3.jpg\" alt=\"Perth\"\u003e\u003c/p\u003e\n\u003cp\u003e\u003cimg src=\"images/perth-4.jpg\" alt=\"Perth\"\u003e\u003c/p\u003e\n\u003cp\u003e\u003cimg src=\"images/perth-5.jpg\" alt=\"Perth\"\u003e\u003c/p\u003e\n\u003cp\u003eCette dernière photo a été prise dans un autre parc, là où a eu lieu la\nréception après le mariage :\u003c/p\u003e\n\u003cp\u003e\u003cimg src=\"images/perth-6.jpg\" alt=\"Perth\"\u003e\u003c/p\u003e\n\u003cp\u003ePour terminer en beauté, voilà des photos de fleurs natives de l\u0026rsquo;Australie (pour\nla plupart, je ne me souviens plus des noms\u0026hellip;) :\u003c/p\u003e\n\u003cp\u003e\u003cimg src=\"images/flowers-1.jpg\" alt=\"Fleurs\"\u003e\u003c/p\u003e\n\u003cp\u003eLes fleurs de la photo suivante s\u0026rsquo;appellent des \u0026ldquo;pattes de kangourou\u0026rdquo;\n(\u003ca href=\"https://en.wikipedia.org/wiki/Kangaroo_paw\"\u003e\u003cem\u003ekangaroo paw\u003c/em\u003e\u003c/a\u003e) :\u003c/p\u003e\n\u003cp\u003e\u003cimg src=\"images/flowers-2.jpg\" alt=\"Fleurs\"\u003e\u003c/p\u003e\n\u003cp\u003e\u003cimg src=\"images/flowers-3.jpg\" alt=\"Fleurs\"\u003e\u003c/p\u003e\n\u003cp\u003e\u003cimg src=\"images/flowers-4.jpg\" alt=\"Fleurs\"\u003e\u003c/p\u003e\n\u003cp\u003e\u003cimg src=\"images/flowers-5.jpg\" alt=\"Fleurs\"\u003e\u003c/p\u003e\n\u003cp\u003e\u003cimg src=\"images/flowers-6.jpg\" alt=\"Fleurs\"\u003e\u003c/p\u003e\n\u003cp\u003e\u003cimg src=\"images/flowers-7.jpg\" alt=\"Fleurs\"\u003e\u003c/p\u003e\n\u003cp\u003e\u003cimg src=\"images/flowers-8.jpg\" alt=\"Fleurs\"\u003e\u003c/p\u003e\n\u003cp\u003e\u003cimg src=\"images/flowers-9.jpg\" alt=\"Fleurs\"\u003e\u003c/p\u003e\n\u003cp\u003e\u003cimg src=\"images/flowers-10.jpg\" alt=\"Fleurs\"\u003e\u003c/p\u003e\n\u003cp\u003e\u003cimg src=\"images/flowers-11.jpg\" alt=\"Fleurs\"\u003e\u003c/p\u003e\n\u003cp\u003e\u003cimg src=\"images/flowers-12.jpg\" alt=\"Fleurs\"\u003e\u003c/p\u003e"
    }
  ]
}
