{
  "version": "https://jsonfeed.org/version/1.1",
  "title": "Guillaume",
  "description": "Recent content in Irlande on Guillaume",
  "home_page_url": "https://www.gaullier.org/fr/tags/irlande/",
  "feed_url": "https://www.gaullier.org/fr/tags/irlande/index.json",
  "authors": [
    {
      "name": "Guillaume Gaullier",
      "url": "https://www.gaullier.org/"
    }
  ],
  "user_comment": "This is a machine-readable full archive of my personal website.",
  "icon": "https://www.gaullier.org/images/logo.png",
  "favicon": "https://www.gaullier.org/favicon.png",
  "language": "fr",
  "items": [
    
    {
      "id": "https://www.gaullier.org/fr/blog/2019/08/31/voyage-en-irlande/",
      "url": "https://www.gaullier.org/fr/blog/2019/08/31/voyage-en-irlande/",
      "title": "Voyage en Irlande",
      "authors": [
        {
          "name": "Guillaume Gaullier"
        }
      ],
      "date_published": "2019-08-31T00:00:00Z",
      "date_modified": "2019-08-31T00:00:00Z",
      "tags": ["travels","ireland"],
      "content_html": "\u003cp\u003eCet été, du 8 au 14 août, nous sommes allés en Irlande avec notre amie harpiste\nMargot. Nous sommes arrivés à Cork, avons loué une voiture et avons roulé à\ntravers le Kerry et le Connemara avant de rentrer à Cork pour ensuite aller en\nBretagne.\u003c/p\u003e\n\u003cp\u003eÀ Cork, nous avons visité le \u003ca href=\"http://thebuttermuseum.com/\"\u003e\u003cem\u003ebutter museum\u003c/em\u003e\u003c/a\u003e, qui expliquait comment\nl\u0026rsquo;Irlande a industrialisé et normalisé sa production de beurre au début du 20e\nsiècle pour pouvoir l\u0026rsquo;exporter, alors qu\u0026rsquo;avant cette période chaque crèmerie\nproduisait un beurre différent.\u003c/p\u003e\n\u003cp\u003e\u003cimg src=\"images/butter-museum-1.jpg\" alt=\"Butter Museum\"\u003e\u003c/p\u003e\n\u003cp\u003eLa partie que j\u0026rsquo;ai trouvée la plus intéressante dans ce musée parlait de la\npréhistoire en Irlande et mentionnait le \u003cem\u003ebog butter\u003c/em\u003e, du beurre qu\u0026rsquo;on retrouve\nparfois dans des tourbières et qui est très ancien. On ne sait toujours pas\npourquoi les gens à cette époque enfouissaient du beurre dans des tourbières.\nCertains pensent que c\u0026rsquo;était un rituel, d\u0026rsquo;autres pensent que c\u0026rsquo;était un moyen\nde conservation pendant l\u0026rsquo;été quand la température ambiante était trop chaude\npour pouvoir conserver du beurre.\u003c/p\u003e\n\u003cp\u003e\u003cimg src=\"images/butter-museum-2.jpg\" alt=\"Bog butter\"\u003e\u003c/p\u003e\n\u003cp\u003e\u003cimg src=\"images/butter-museum-3.jpg\" alt=\"Bog butter sign\"\u003e\u003c/p\u003e\n\u003cp\u003eAprès une nuit et une journée à Cork, nous sommes allés dans le Kerry. Nous\navons passé une nuit à Killarney et une nuit à Dingle. Près de Killarney, nous\navons vu le \u003ca href=\"https://fr.wikipedia.org/wiki/Gap_of_Dunloe\"\u003e\u003cem\u003egap of Dunloe\u003c/em\u003e\u003c/a\u003e :\u003c/p\u003e\n\u003cp\u003e\u003cimg src=\"images/kerry-1.jpg\" alt=\"Gap of Dunloe\"\u003e\u003c/p\u003e\n\u003cp\u003eÀ Ventry, juste à l\u0026rsquo;ouest de Dingle, nous avons visité le \u003cem\u003eCeltic Prehistoric\nMuseum\u003c/em\u003e :\u003c/p\u003e\n\u003cp\u003e\u003cimg src=\"images/celtic-prehistoric-museum-1.jpg\" alt=\"Celtic Prehistoric Museum\"\u003e\u003c/p\u003e\n\u003cp\u003e\u003cimg src=\"images/celtic-prehistoric-museum-2.jpg\" alt=\"Celtic Prehistoric Museum\"\u003e\u003c/p\u003e\n\u003cp\u003eAprès notre étape à Dingle, nous avons fait le tour de la péninsule de Dingle.\u003c/p\u003e\n\u003cp\u003e\u003cimg src=\"images/kerry-2.jpg\" alt=\"Péninsule de Dingle\"\u003e\u003c/p\u003e\n\u003cp\u003eL\u0026rsquo;île dans la photo suivante s\u0026rsquo;appelle \u003ca href=\"https://fr.wikipedia.org/wiki/An_Blascaod_M%C3%B3r\"\u003e\u003cem\u003eGreat Blasket Island\u003c/em\u003e\u003c/a\u003e, et\nnous avions prévu d\u0026rsquo;y passer la deuxième nuit du voyage après Cork, mais quand\nnous sommes arrivés la météo était trop mauvaise et les ferrys annulés, donc\nnous avons passé cette nuit à Killarney.\u003c/p\u003e\n\u003cp\u003e\u003cimg src=\"images/kerry-3.jpg\" alt=\"Blasket Island\"\u003e\u003c/p\u003e\n\u003cp\u003eIl y a \u003ca href=\"https://dingle-peninsula.ie/explore/history-and-archaeology/8-explore-the-dingle-peninsula/history-and-archaeology/206-monuments-and-archaeological-sites-on-the-dingle-peninsula-laithreacha-seandaliochta-i-gcorca-dhuibhne.html\"\u003eplusieurs sites archéologiques\u003c/a\u003e sur la péninsule de Dingle, et\nnous n\u0026rsquo;avons pas pris le temps de nous arrêter à chacun d\u0026rsquo;eux. Nous avons visité\nl\u0026rsquo;\u003ca href=\"https://fr.wikipedia.org/wiki/Oratoire_de_Gallarus\"\u003eoratoire de Gallarus\u003c/a\u003e :\u003c/p\u003e\n\u003cp\u003e\u003cimg src=\"images/kerry-4.jpg\" alt=\"Oratoire de Gallarus\"\u003e\u003c/p\u003e\n\u003cp\u003eNous avons fait une étape à \u003ca href=\"https://en.wikipedia.org/wiki/Barna\"\u003eBarna\u003c/a\u003e, chez Úna, une amie (elle aussi\nharpiste) de Margot. Nous sommes ensuites allés dans le \u003ca href=\"https://fr.wikipedia.org/wiki/Connemara\"\u003eConnemara\u003c/a\u003e.\u003c/p\u003e\n\u003cp\u003e\u003cimg src=\"images/connemara-1.jpg\" alt=\"Connemara\"\u003e\u003c/p\u003e\n\u003cp\u003eNous avons visité l\u0026rsquo;\u003ca href=\"https://fr.wikipedia.org/wiki/Abbaye_de_Kylemore\"\u003eabbaye de Kylemore\u003c/a\u003e et ses jardins :\u003c/p\u003e\n\u003cp\u003e\u003cimg src=\"images/kylemore-1.jpg\" alt=\"Abbaye de Kylemore\"\u003e\u003c/p\u003e\n\u003cp\u003e\u003cimg src=\"images/kylemore-2.jpg\" alt=\"Abbaye de Kylemore\"\u003e\u003c/p\u003e\n\u003cp\u003e\u003cimg src=\"images/kylemore-3.jpg\" alt=\"Jardins de l\u0026amp;rsquo;abbaye de Kylemore\"\u003e\u003c/p\u003e\n\u003cp\u003e\u003cimg src=\"images/kylemore-4.jpg\" alt=\"Jardins de l\u0026amp;rsquo;abbaye de Kylemore\"\u003e\u003c/p\u003e\n\u003cp\u003eNous avons fait une rando dans le \u003ca href=\"https://fr.wikipedia.org/wiki/Parc_national_du_Connemara\"\u003e\u003cem\u003eConnemara National Park\u003c/em\u003e\u003c/a\u003e, près de\n\u003ca href=\"https://fr.wikipedia.org/wiki/Letterfrack\"\u003eLetterfrack\u003c/a\u003e :\u003c/p\u003e\n\u003cp\u003e\u003cimg src=\"images/connemara-2.jpg\" alt=\"Connemara National Park\"\u003e\u003c/p\u003e\n\u003cp\u003e\u003cimg src=\"images/connemara-3.jpg\" alt=\"Connemara National Park\"\u003e\u003c/p\u003e\n\u003cp\u003e\u003cimg src=\"images/connemara-4.jpg\" alt=\"Connemara National Park\"\u003e\u003c/p\u003e\n\u003cp\u003eLe lendemain, nous avons fait une autre petite promenade dans les environs.\u003c/p\u003e\n\u003cp\u003e\u003cimg src=\"images/connemara-5.jpg\" alt=\"Connemara National Park\"\u003e\u003c/p\u003e\n\u003cp\u003e\u003cimg src=\"images/connemara-6.jpg\" alt=\"Embouteillage dans le Connemara\"\u003e\u003c/p\u003e\n\u003cp\u003eAprès cet embouteillage, nous avons roulé jusqu\u0026rsquo;à \u003ca href=\"https://fr.wikipedia.org/wiki/Ennis\"\u003eEnnis\u003c/a\u003e où nous avons\npassé un peu de temps avec Kate, une autre amie musicienne de Boulder qui était\nen vacances dans la région au même moment. Puis nous avons continué jusqu\u0026rsquo;à\n\u003ca href=\"https://fr.wikipedia.org/wiki/Kinsale\"\u003eKinsale\u003c/a\u003e, où nous avons passé la dernière nuit et le dernier jour\navant de reprendre l\u0026rsquo;avion à Cork. Nous avons suivi une visite guidée fascinante\nsur l\u0026rsquo;histoire de la ville. J\u0026rsquo;ai bien aimé les maisons très colorées (encore\nplus qu\u0026rsquo;à Cork et Dingle) :\u003c/p\u003e\n\u003cp\u003e\u003cimg src=\"images/kinsale.jpg\" alt=\"Kinsale\"\u003e\u003c/p\u003e"
    }
  ]
}
