{
  "version": "https://jsonfeed.org/version/1.1",
  "title": "Guillaume",
  "description": "Recent content in Theater on Guillaume",
  "home_page_url": "https://www.gaullier.org/en/tags/theater/",
  "feed_url": "https://www.gaullier.org/en/tags/theater/index.json",
  "authors": [
    {
      "name": "Guillaume Gaullier",
      "url": "https://www.gaullier.org/"
    }
  ],
  "user_comment": "This is a machine-readable full archive of my personal website.",
  "icon": "https://www.gaullier.org/images/logo.png",
  "favicon": "https://www.gaullier.org/favicon.png",
  "language": "en",
  "items": [
    
  ]
}
